v 20121123 2
C 40000 40000 0 0 0 title-B.sym
C 45100 45300 1 0 1 ATtiny25-1.sym
{
T 44825 48750 5 10 0 0 0 6 1
device=ATtiny25
T 44000 46750 5 10 1 1 0 6 1
refdes=U1
T 44825 47950 5 10 0 0 0 6 1
footprint=SO8NM
}
C 40900 43800 1 0 0 mcp1701a-1.sym
{
T 41200 46400 5 10 1 1 0 0 1
refdes=U2
T 42300 46500 5 10 0 0 0 0 1
device=MCP1701A
T 42300 45700 5 10 0 0 0 0 1
footprint=SOT23
}
C 42300 43300 1 270 0 capacitor-2.sym
{
T 43000 43100 5 10 0 0 270 0 1
device=POLARIZED_CAPACITOR
T 42800 43300 5 10 1 1 270 0 1
refdes=C2
T 43200 43100 5 10 0 0 270 0 1
symversion=0.1
T 42300 43300 5 10 0 1 0 0 1
footprint=1210
}
C 40100 43200 1 270 0 capacitor-2.sym
{
T 40800 43000 5 10 0 0 270 0 1
device=POLARIZED_CAPACITOR
T 40600 43000 5 10 1 1 270 0 1
refdes=C1
T 41000 43000 5 10 0 0 270 0 1
symversion=0.1
T 40100 43200 5 10 0 1 0 0 1
footprint=1210
}
N 40900 46100 40300 46100 4
N 40300 50800 40300 43200 4
N 40800 49500 40800 41600 4
N 40300 42300 40300 41600 4
N 40300 41600 56300 41600 4
{
T 46400 41600 5 10 1 1 0 0 1
netname=GND
}
N 42500 42400 42500 41600 4
C 43300 41800 1 0 0 connector10-1.sym
{
T 45200 44800 5 10 0 0 0 0 1
device=CONNECTOR_10
T 43400 45000 5 10 1 1 0 0 1
refdes=PROG
T 43300 41800 5 10 0 1 0 0 1
footprint=HEADER10_1
}
N 45100 46500 46600 46500 4
N 46200 46500 46200 44700 4
N 46200 44700 45000 44700 4
N 44900 45500 45600 45500 4
N 45600 45500 45600 44100 4
N 45600 44100 44800 44100 4
N 45100 46100 47000 46100 4
N 45800 46100 45800 43800 4
N 45800 43800 45000 43800 4
N 45100 46300 46800 46300 4
N 46000 46300 46000 43500 4
N 46000 43500 45000 43500 4
C 45000 44300 1 0 0 nc-right-1.sym
{
T 45100 44800 5 10 0 0 0 0 1
value=NoConnection
T 45100 45000 5 10 0 0 0 0 1
device=DRC_Directive
}
N 45000 43200 45000 42300 4
N 45000 42300 45200 42300 4
N 45200 42300 45200 41600 4
N 45000 42000 46400 42000 4
C 47900 42700 1 270 0 resistor-2.sym
{
T 48250 42300 5 10 0 0 270 0 1
device=RESISTOR
T 48200 42500 5 10 1 1 270 0 1
refdes=R50
T 47900 42700 5 10 0 1 0 0 1
footprint=1206
}
N 40300 50800 56700 50800 4
N 40500 50600 56500 50600 4
{
T 43500 50300 5 10 1 1 0 0 1
netname=Vcc
}
N 49000 42000 49000 41600 4
N 52400 41600 52400 41800 4
N 48000 42700 48400 42700 4
N 48000 42700 48000 43200 4
N 46600 45700 45100 45700 4
N 49000 43000 49600 43000 4
{
T 48400 42900 5 10 1 1 0 0 1
netname=Q50-D
}
N 46600 43200 49300 43200 4
{
T 46700 43300 5 10 1 1 0 0 1
netname=PB4
}
C 49600 42000 1 0 0 resistor-2.sym
{
T 50000 42350 5 10 0 0 0 0 1
device=RESISTOR
T 49800 42300 5 10 1 1 0 0 1
refdes=R52
T 49600 42000 5 10 0 1 0 0 1
footprint=1206
}
C 49600 42900 1 0 0 resistor-2.sym
{
T 50000 43250 5 10 0 0 0 0 1
device=RESISTOR
T 49800 43200 5 10 1 1 0 0 1
refdes=R51
T 49600 42900 5 10 0 1 0 0 1
footprint=1206
}
C 50900 43000 1 0 0 coil-1.sym
{
T 51100 43400 5 10 0 0 0 0 1
device=COIL
T 51100 43200 5 10 1 1 0 0 1
refdes=L50
T 51100 43600 5 10 0 0 0 0 1
symversion=0.1
T 50900 43000 5 10 0 1 0 0 1
footprint=RCY200
}
C 52400 41700 1 0 0 resistor-2.sym
{
T 52800 42050 5 10 0 0 0 0 1
device=RESISTOR
T 52600 42000 5 10 1 1 0 0 1
refdes=R55
T 52400 41700 5 10 0 1 0 0 1
footprint=1206
}
C 40900 42400 1 0 0 mcp1701a-1.sym
{
T 41200 45000 5 10 1 1 0 0 1
refdes=U3
T 42300 45100 5 10 0 0 0 0 1
device=MCP1701A
T 42300 44300 5 10 0 0 0 0 1
footprint=SOT223
}
N 40800 45900 40900 45900 4
N 40900 44700 40300 44700 4
N 40900 44500 40800 44500 4
C 42700 50000 1 180 0 connector3-1.sym
{
T 40900 49100 5 10 0 0 180 0 1
device=CONNECTOR_3
T 42700 48900 5 10 1 1 180 0 1
refdes=PWR1
T 42700 50000 5 10 0 1 0 0 1
footprint=PS_3PIN.fp
}
N 42500 43300 42500 46600 4
N 42400 44700 42500 44700 4
N 43500 45700 43100 45700 4
N 43100 45700 43100 41600 4
C 42900 46600 1 270 0 capacitor-2.sym
{
T 43600 46400 5 10 0 0 270 0 1
device=POLARIZED_CAPACITOR
T 42700 46500 5 10 1 1 270 0 1
refdes=C3
T 43800 46400 5 10 0 0 270 0 1
symversion=0.1
T 42900 46600 5 10 0 1 0 0 1
footprint=1210
}
N 43500 45900 43500 46600 4
N 40500 46600 43500 46600 4
N 42400 46100 42500 46100 4
N 40500 46600 40500 50600 4
N 40500 49200 41000 49200 4
N 40800 49500 41000 49500 4
N 41000 49800 40300 49800 4
{
T 40800 49900 5 10 1 1 0 0 1
netname=Vin
}
N 46400 42000 46400 50600 4
C 41900 42900 1 90 0 led-3.sym
{
T 41250 43850 5 10 0 0 90 0 1
device=LED
T 41950 43650 5 10 1 1 270 0 1
refdes=D1
T 41900 42900 5 10 0 1 0 0 1
footprint=1206
}
C 41600 42700 1 270 0 resistor-2.sym
{
T 41950 42300 5 10 0 0 270 0 1
device=RESISTOR
T 41900 42500 5 10 1 1 270 0 1
refdes=R1
T 41600 42700 5 10 0 1 0 0 1
footprint=1206
}
N 41700 41800 41700 41600 4
N 41700 42900 41700 42700 4
N 41700 43800 42500 43800 4
C 55000 43000 1 180 0 connector3-1.sym
{
T 53200 42100 5 10 0 0 180 0 1
device=CONNECTOR_3
T 55000 41900 5 10 1 1 180 0 1
refdes=PB4
T 55000 43000 5 10 0 1 0 0 1
footprint=JUMPER3
}
N 53300 41800 53300 42200 4
{
T 53400 41900 5 10 1 1 0 0 1
netname=PB4-minus
}
N 49300 43200 49300 42100 4
N 49300 42100 49600 42100 4
N 50500 42100 51900 42100 4
N 50500 43000 50900 43000 4
N 50700 43000 50700 42500 4
N 53300 43100 55200 43100 4
N 53300 43100 53300 42800 4
C 52000 42500 1 270 0 capacitor-2.sym
{
T 52700 42300 5 10 0 0 270 0 1
device=POLARIZED_CAPACITOR
T 51800 42000 5 10 1 1 270 0 1
refdes=C51
T 52900 42300 5 10 0 0 270 0 1
symversion=0.1
T 52000 42500 5 10 0 1 0 0 1
footprint=1210
}
N 51900 42100 51900 42500 4
C 55200 42600 1 0 0 resistor-2.sym
{
T 55600 42950 5 10 0 0 0 0 1
device=RESISTOR
T 55400 42900 5 10 1 1 0 0 1
refdes=R53
T 55200 42600 5 10 0 1 0 0 1
footprint=1206
}
C 55200 42000 1 0 0 resistor-2.sym
{
T 55600 42350 5 10 0 0 0 0 1
device=RESISTOR
T 55400 42300 5 10 1 1 0 0 1
refdes=R54
T 55200 42000 5 10 0 1 0 0 1
footprint=1206
}
N 55200 43100 55200 42100 4
N 56700 50800 56700 42700 4
N 56700 42700 56100 42700 4
N 56500 50600 56500 42100 4
N 56500 42100 56100 42100 4
N 56300 41600 56300 48800 4
N 45100 45900 46800 45900 4
N 48400 42700 48400 42500 4
N 51900 43000 53300 43000 4
N 48000 41800 48000 41600 4
C 47900 44500 1 270 0 resistor-2.sym
{
T 48250 44100 5 10 0 0 270 0 1
device=RESISTOR
T 48200 44300 5 10 1 1 270 0 1
refdes=R40
T 47900 44500 5 10 0 1 0 0 1
footprint=1206
}
N 49000 43800 49000 43400 4
N 48000 44500 48400 44500 4
N 48000 44500 48000 45000 4
N 49000 44800 50000 44800 4
{
T 48400 44700 5 10 1 1 0 0 1
netname=Q40-D
}
N 46800 45000 50600 45000 4
{
T 46900 45100 5 10 1 1 0 0 1
netname=PB3
}
C 50500 44800 1 270 0 resistor-2.sym
{
T 50850 44400 5 10 0 0 270 0 1
device=RESISTOR
T 50800 44600 5 10 1 1 270 0 1
refdes=R42
T 50500 44800 5 10 0 1 0 0 1
footprint=1206
}
C 49900 44800 1 270 0 resistor-2.sym
{
T 50250 44400 5 10 0 0 270 0 1
device=RESISTOR
T 50200 44600 5 10 1 1 270 0 1
refdes=R41
T 49900 44800 5 10 0 1 0 0 1
footprint=1206
}
C 55000 44800 1 180 0 connector3-1.sym
{
T 53200 43900 5 10 0 0 180 0 1
device=CONNECTOR_3
T 55000 43700 5 10 1 1 180 0 1
refdes=PB3
T 55000 44800 5 10 0 1 0 0 1
footprint=JUMPER3
}
N 53300 43400 53300 44000 4
N 52200 44300 53300 44300 4
{
T 52200 44400 5 10 1 1 0 0 1
netname=PB3-mid
}
N 53300 44900 55200 44900 4
N 53300 44900 53300 44600 4
C 55200 44400 1 0 0 resistor-2.sym
{
T 55600 44750 5 10 0 0 0 0 1
device=RESISTOR
T 55400 44700 5 10 1 1 0 0 1
refdes=R43
T 55200 44400 5 10 0 1 0 0 1
footprint=1206
}
C 55200 43800 1 0 0 resistor-2.sym
{
T 55600 44150 5 10 0 0 0 0 1
device=RESISTOR
T 55400 44100 5 10 1 1 0 0 1
refdes=R44
T 55200 43800 5 10 0 1 0 0 1
footprint=1206
}
N 55200 44900 55200 43900 4
N 56700 44500 56100 44500 4
N 56500 43900 56100 43900 4
N 48400 44500 48400 44300 4
N 48000 43600 48000 43400 4
C 47900 46300 1 270 0 resistor-2.sym
{
T 48250 45900 5 10 0 0 270 0 1
device=RESISTOR
T 48200 46100 5 10 1 1 270 0 1
refdes=R30
T 47900 46300 5 10 0 1 0 0 1
footprint=1206
}
N 49000 45600 49000 45200 4
N 48000 46300 48400 46300 4
N 48000 46300 48000 46800 4
N 49000 46600 50000 46600 4
{
T 48400 46600 5 10 1 1 0 0 1
netname=Q30-D
}
N 48000 46800 50700 46800 4
{
T 50800 46700 5 10 1 1 0 0 1
netname=PB2
}
C 50600 46600 1 270 0 resistor-2.sym
{
T 50950 46200 5 10 0 0 270 0 1
device=RESISTOR
T 50900 46400 5 10 1 1 270 0 1
refdes=R32
T 50600 46600 5 10 0 1 0 0 1
footprint=1206
}
C 49900 46600 1 270 0 resistor-2.sym
{
T 50250 46200 5 10 0 0 270 0 1
device=RESISTOR
T 50200 46400 5 10 1 1 270 0 1
refdes=R31
T 49900 46600 5 10 0 1 0 0 1
footprint=1206
}
C 55000 46600 1 180 0 connector3-1.sym
{
T 53200 45700 5 10 0 0 180 0 1
device=CONNECTOR_3
T 55000 45500 5 10 1 1 180 0 1
refdes=PB2
T 55000 46600 5 10 0 1 0 0 1
footprint=JUMPER3
}
N 53300 45200 53300 45800 4
N 53100 46100 53300 46100 4
N 50700 46800 50700 46600 4
N 53300 46700 55200 46700 4
N 53300 46700 53300 46400 4
C 55200 46200 1 0 0 resistor-2.sym
{
T 55600 46550 5 10 0 0 0 0 1
device=RESISTOR
T 55400 46500 5 10 1 1 0 0 1
refdes=R33
T 55200 46200 5 10 0 1 0 0 1
footprint=1206
}
C 55200 45600 1 0 0 resistor-2.sym
{
T 55600 45950 5 10 0 0 0 0 1
device=RESISTOR
T 55400 45900 5 10 1 1 0 0 1
refdes=R34
T 55200 45600 5 10 0 1 0 0 1
footprint=1206
}
N 55200 46700 55200 45700 4
N 56700 46300 56100 46300 4
N 56500 45700 56100 45700 4
N 48400 46300 48400 46100 4
N 48000 45400 48000 45200 4
C 47900 48100 1 270 0 resistor-2.sym
{
T 48250 47700 5 10 0 0 270 0 1
device=RESISTOR
T 48200 47900 5 10 1 1 270 0 1
refdes=R20
T 47900 48100 5 10 0 1 0 0 1
footprint=1206
}
N 49000 47400 49000 47000 4
N 48000 48100 48400 48100 4
N 48000 48100 48000 48600 4
N 49000 48400 50000 48400 4
{
T 48400 48300 5 10 1 1 0 0 1
netname=Q20-D
}
N 46800 48600 51200 48600 4
{
T 46800 48700 5 10 1 1 0 0 1
netname=PB1
}
C 50500 48400 1 270 0 resistor-2.sym
{
T 50850 48000 5 10 0 0 270 0 1
device=RESISTOR
T 50800 48200 5 10 1 1 270 0 1
refdes=R22
T 50500 48400 5 10 0 1 0 0 1
footprint=1206
}
C 49900 48400 1 270 0 resistor-2.sym
{
T 50250 48000 5 10 0 0 270 0 1
device=RESISTOR
T 50200 48200 5 10 1 1 270 0 1
refdes=R21
T 49900 48400 5 10 0 1 0 0 1
footprint=1206
}
C 55000 48400 1 180 0 connector3-1.sym
{
T 53200 47500 5 10 0 0 180 0 1
device=CONNECTOR_3
T 55000 47300 5 10 1 1 180 0 1
refdes=PB1
T 55000 48400 5 10 0 1 0 0 1
footprint=JUMPER3
}
N 53300 47000 53300 47600 4
N 50600 48600 50600 48400 4
N 53100 47900 53300 47900 4
N 53300 48500 55200 48500 4
N 53300 48500 53300 48200 4
C 55200 48000 1 0 0 resistor-2.sym
{
T 55600 48350 5 10 0 0 0 0 1
device=RESISTOR
T 55400 48300 5 10 1 1 0 0 1
refdes=R23
T 55200 48000 5 10 0 1 0 0 1
footprint=1206
}
C 55200 47400 1 0 0 resistor-2.sym
{
T 55600 47750 5 10 0 0 0 0 1
device=RESISTOR
T 55400 47700 5 10 1 1 0 0 1
refdes=R24
T 55200 47400 5 10 0 1 0 0 1
footprint=1206
}
N 55200 48500 55200 47500 4
N 56700 48100 56100 48100 4
N 56500 47500 56100 47500 4
N 48400 48100 48400 47900 4
N 48000 47200 48000 47000 4
C 47900 49900 1 270 0 resistor-2.sym
{
T 48250 49500 5 10 0 0 270 0 1
device=RESISTOR
T 48200 49700 5 10 1 1 270 0 1
refdes=R10
T 47900 49900 5 10 0 1 0 0 1
footprint=1206
}
N 49000 49200 49000 48800 4
N 52200 48800 52200 48400 4
N 48000 49900 48400 49900 4
N 48000 49900 48000 50400 4
N 49000 50200 49600 50200 4
{
T 48400 50100 5 10 1 1 0 0 1
netname=Q10-D
}
N 46600 50400 49300 50400 4
{
T 46800 50200 5 10 1 1 0 0 1
netname=PB0
}
C 49600 49200 1 0 0 resistor-2.sym
{
T 50000 49550 5 10 0 0 0 0 1
device=RESISTOR
T 49800 49500 5 10 1 1 0 0 1
refdes=R12
T 49600 49200 5 10 0 1 0 0 1
footprint=1206
}
C 49600 50100 1 0 0 resistor-2.sym
{
T 50000 50450 5 10 0 0 0 0 1
device=RESISTOR
T 49800 50400 5 10 1 1 0 0 1
refdes=R11
T 49600 50100 5 10 0 1 0 0 1
footprint=1206
}
C 50900 50200 1 0 0 coil-1.sym
{
T 51100 50600 5 10 0 0 0 0 1
device=COIL
T 51100 50800 5 10 0 0 0 0 1
symversion=0.1
T 51100 50400 5 10 1 1 0 0 1
refdes=L10
T 50900 50200 5 10 0 1 0 0 1
footprint=RCY200
}
C 52200 48300 1 0 0 resistor-2.sym
{
T 52600 48650 5 10 0 0 0 0 1
device=RESISTOR
T 52400 48600 5 10 1 1 0 0 1
refdes=R15
T 52200 48300 5 10 0 1 0 0 1
footprint=1206
}
C 55000 50200 1 180 0 connector3-1.sym
{
T 53200 49300 5 10 0 0 180 0 1
device=CONNECTOR_3
T 55000 49100 5 10 1 1 180 0 1
refdes=PB0
T 55000 50200 5 10 0 1 0 0 1
footprint=JUMPER3
}
N 53100 48200 53100 49400 4
{
T 53200 49100 5 10 1 1 0 0 1
netname=PB0-minus
}
N 53100 49400 53300 49400 4
N 49300 50400 49300 49300 4
N 49300 49300 49600 49300 4
N 51700 49700 53300 49700 4
{
T 52400 49800 5 10 1 1 0 0 1
netname=PB0-mid
}
N 50500 50200 50900 50200 4
N 50700 50200 50700 49700 4
N 53300 50300 55200 50300 4
N 53300 50300 53300 50000 4
C 52000 49700 1 270 0 capacitor-2.sym
{
T 52700 49500 5 10 0 0 270 0 1
device=POLARIZED_CAPACITOR
T 52900 49500 5 10 0 0 270 0 1
symversion=0.1
T 52500 49500 5 10 1 1 270 0 1
refdes=C11
T 52000 49700 5 10 0 1 0 0 1
footprint=1210
}
C 55200 49800 1 0 0 resistor-2.sym
{
T 55600 50150 5 10 0 0 0 0 1
device=RESISTOR
T 55400 50100 5 10 1 1 0 0 1
refdes=R13
T 55200 49800 5 10 0 1 0 0 1
footprint=1206
}
C 55200 49200 1 0 0 resistor-2.sym
{
T 55600 49550 5 10 0 0 0 0 1
device=RESISTOR
T 55400 49500 5 10 1 1 0 0 1
refdes=R14
T 55200 49200 5 10 0 1 0 0 1
footprint=1206
}
N 55200 50300 55200 49300 4
N 56700 49900 56100 49900 4
N 56500 49300 56100 49300 4
N 48400 49900 48400 49700 4
N 51900 50200 53300 50200 4
N 48000 49000 48000 48800 4
N 48000 43400 56300 43400 4
N 56300 48800 48000 48800 4
N 48000 47000 56300 47000 4
N 48000 45200 56300 45200 4
N 46600 43200 46600 45700 4
N 46800 45900 46800 45000 4
N 46800 46300 46800 47500 4
N 46600 49300 46600 46500 4
C 52200 44700 1 0 0 resistor-2.sym
{
T 52600 45050 5 10 0 0 0 0 1
device=RESISTOR
T 52400 45000 5 10 1 1 0 0 1
refdes=R45
T 52200 44700 5 10 0 1 0 0 1
footprint=1206
}
C 51200 48100 1 0 0 resistor-2.sym
{
T 51600 48450 5 10 0 0 0 0 1
device=RESISTOR
T 51400 48400 5 10 1 1 0 0 1
refdes=R25
T 51200 48100 5 10 0 1 0 0 1
footprint=1206
}
N 51200 48600 51200 48200 4
N 52200 43900 52200 44300 4
N 53100 44800 53100 42200 4
N 53100 42200 53300 42200 4
C 50800 49500 1 0 0 diode-1.sym
{
T 51200 50100 5 10 0 0 0 0 1
device=DIODE
T 51100 50000 5 10 1 1 0 0 1
refdes=D10
T 50800 49500 5 10 0 1 0 0 1
footprint=SMB
}
N 50500 49300 51900 49300 4
N 51900 49300 51900 49700 4
N 50700 49700 50800 49700 4
C 50800 42300 1 0 0 diode-1.sym
{
T 51200 42900 5 10 0 0 0 0 1
device=DIODE
T 51100 42800 5 10 1 1 0 0 1
refdes=D50
T 50800 42300 5 10 0 1 0 0 1
footprint=SMB
}
N 50700 42500 50800 42500 4
N 51700 42500 53300 42500 4
{
T 52200 42600 5 10 1 1 0 0 1
netname=PB4-mid
}
N 53100 47900 53100 47500 4
N 53100 47500 50000 47500 4
{
T 52300 47600 5 10 1 1 0 0 1
netname=PB1-mid
}
N 53100 48200 52100 48200 4
N 52200 43900 50000 43900 4
N 50600 45000 50600 44800 4
C 46500 49300 1 0 0 jumper-1.sym
{
T 46800 49800 5 8 0 0 0 0 1
device=JUMPER
T 46800 49800 5 10 1 1 0 0 1
refdes=J10
T 46500 49300 5 10 0 1 0 0 1
footprint=JUMPER2
}
N 46600 50400 46600 50300 4
N 53100 46100 53100 45700 4
N 53100 45700 50000 45700 4
{
T 52300 45800 5 10 1 1 0 0 1
netname=PB2-mid
}
C 41200 46900 1 0 0 resistor-2.sym
{
T 41600 47250 5 10 0 0 0 0 1
device=RESISTOR
T 41400 47200 5 10 1 1 0 0 1
refdes=R2
T 41200 46900 5 10 0 1 0 0 1
footprint=1206
}
N 40300 47000 41200 47000 4
N 42100 47000 42500 47000 4
N 42500 47000 42500 46600 4
C 46700 47500 1 0 0 jumper-1.sym
{
T 47000 48000 5 8 0 0 0 0 1
device=JUMPER
T 47000 48000 5 10 1 1 0 0 1
refdes=J20
T 46700 47500 5 10 0 1 0 0 1
footprint=JUMPER2
}
N 46800 48500 46800 48600 4
C 47000 46900 1 270 0 jumper-1.sym
{
T 47500 46600 5 8 0 0 270 0 1
device=JUMPER
T 47400 46400 5 10 1 1 0 0 1
refdes=J30
T 47000 46900 5 10 0 1 270 0 1
footprint=JUMPER2
}
C 48400 49200 1 0 0 mosfet-with-diode-2.sym
{
T 49300 49700 5 10 0 0 0 0 1
device=NPN_TRANSISTOR
T 49300 49700 5 10 1 1 0 0 1
refdes=Q10
T 48400 49200 5 10 0 1 0 0 1
footprint=SOT23
}
C 48400 47400 1 0 0 mosfet-with-diode-2.sym
{
T 49300 47900 5 10 0 0 0 0 1
device=NPN_TRANSISTOR
T 49300 47900 5 10 1 1 0 0 1
refdes=Q20
T 48400 47400 5 10 0 1 0 0 1
footprint=SOT23
}
C 48400 45600 1 0 0 mosfet-with-diode-2.sym
{
T 49300 46100 5 10 0 0 0 0 1
device=NPN_TRANSISTOR
T 49300 46100 5 10 1 1 0 0 1
refdes=Q30
T 48400 45600 5 10 0 1 0 0 1
footprint=SOT23
}
C 48400 43800 1 0 0 mosfet-with-diode-2.sym
{
T 49300 44300 5 10 0 0 0 0 1
device=NPN_TRANSISTOR
T 49300 44300 5 10 1 1 0 0 1
refdes=Q40
T 48400 43800 5 10 0 1 0 0 1
footprint=SOT23
}
C 48400 42000 1 0 0 mosfet-with-diode-2.sym
{
T 49300 42500 5 10 0 0 0 0 1
device=NPN_TRANSISTOR
T 49300 42500 5 10 1 1 0 0 1
refdes=Q50
T 48400 42000 5 10 0 1 0 0 1
footprint=SOT23
}
N 52200 44800 50600 44800 4
N 47000 46800 47000 46100 4
C 43500 49000 1 0 0 mosfet-with-diode-2.sym
{
T 44400 49500 5 10 0 0 0 0 1
device=NPN_TRANSISTOR
T 44300 49800 5 10 1 1 0 0 1
refdes=Q1
T 43500 49000 5 10 0 1 0 0 1
footprint=SOT23
}
C 45000 49000 1 0 0 mosfet-with-diode-2.sym
{
T 45900 49500 5 10 0 0 0 0 1
device=NPN_TRANSISTOR
T 45900 49500 5 10 1 1 0 0 1
refdes=Q2
T 45000 49000 5 10 0 1 0 0 1
footprint=SOT23
}
C 44400 47700 1 0 0 resistor-2.sym
{
T 44800 48050 5 10 0 0 0 0 1
device=RESISTOR
T 44600 48000 5 10 1 1 0 0 1
refdes=R4
T 44400 47700 5 10 0 1 0 0 1
footprint=1206
}
C 41800 47700 1 0 0 resistor-2.sym
{
T 42200 48050 5 10 0 0 0 0 1
device=RESISTOR
T 42000 48000 5 10 1 1 0 0 1
refdes=R3
T 41800 47700 5 10 0 1 0 0 1
footprint=1206
}
C 45400 48600 1 0 0 nc-bottom-1.sym
{
T 45400 49200 5 10 0 0 0 0 1
value=NoConnection
T 45400 49600 5 10 0 0 0 0 1
device=DRC_Directive
}
C 43900 48600 1 0 0 nc-bottom-1.sym
{
T 43900 49200 5 10 0 0 0 0 1
value=NoConnection
T 43900 49600 5 10 0 0 0 0 1
device=DRC_Directive
}
C 41300 47700 1 0 0 nc-left-1.sym
{
T 41300 48100 5 10 0 0 0 0 1
value=NoConnection
T 41300 48500 5 10 0 0 0 0 1
device=DRC_Directive
}
C 43900 47700 1 0 0 nc-left-1.sym
{
T 43900 48100 5 10 0 0 0 0 1
value=NoConnection
T 43900 48500 5 10 0 0 0 0 1
device=DRC_Directive
}
C 44500 49400 1 0 0 nc-left-1.sym
{
T 44500 49800 5 10 0 0 0 0 1
value=NoConnection
T 44500 50200 5 10 0 0 0 0 1
device=DRC_Directive
}
C 43000 49400 1 0 0 nc-left-1.sym
{
T 43000 49800 5 10 0 0 0 0 1
value=NoConnection
T 43000 50200 5 10 0 0 0 0 1
device=DRC_Directive
}
C 43900 50000 1 0 0 nc-top-1.sym
{
T 44300 50500 5 10 0 0 0 0 1
value=NoConnection
T 44300 50700 5 10 0 0 0 0 1
device=DRC_Directive
}
C 45400 50000 1 0 0 nc-top-1.sym
{
T 45800 50500 5 10 0 0 0 0 1
value=NoConnection
T 45800 50700 5 10 0 0 0 0 1
device=DRC_Directive
}
C 42700 47700 1 0 0 nc-right-1.sym
{
T 42800 48200 5 10 0 0 0 0 1
value=NoConnection
T 42800 48400 5 10 0 0 0 0 1
device=DRC_Directive
}
C 45300 47700 1 0 0 nc-right-1.sym
{
T 45400 48200 5 10 0 0 0 0 1
value=NoConnection
T 45400 48400 5 10 0 0 0 0 1
device=DRC_Directive
}
T 50800 41000 9 18 1 0 0 0 1
http://www.fi.muni.cz/~kas/tinyboard/
T 50400 40700 9 10 1 0 0 0 1
Distributable under the terms of GNU General Public License, version 2
T 54100 40200 9 14 1 0 0 0 1
Jan "Yenya" Kasprzak
